<?xml version="1.0" encoding="UTF-8"?>
<!DOCTYPE svg PUBLIC "-//W3C//DTD SVG 1.1//EN" "http://www.w3.org/Graphics/SVG/1.1/DTD/svg11.dtd">
<!-- Creator: CorelDRAW X7 -->
<svg xmlns="http://www.w3.org/2000/svg" xml:space="preserve" width="41.2104mm" height="41.2104mm" version="1.1" style="shape-rendering:geometricPrecision; text-rendering:geometricPrecision; image-rendering:optimizeQuality; fill-rule:evenodd; clip-rule:evenodd"
viewBox="0 0 1839 1839"
 xmlns:xlink="http://www.w3.org/1999/xlink">
 <defs>
  <style type="text/css">
   <![CDATA[
    .str0 {stroke:#7093ED;stroke-width:8.92496}
    .fil1 {fill:#3670A2}
    .fil0 {fill:#7093ED}
    .fil3 {fill:#FEFEFE}
    .fil2 {fill:#FFCF45}
   ]]>
  </style>
 </defs>
 <g id="Capa_x0020_1">
  <metadata id="CorelCorpID_0Corel-Layer"/>
  <circle class="fil0 str0" cx="920" cy="920" r="915"/>
  <path class="fil1" d="M614 568l331 1 1 40c-195,20 -483,-32 -580,40 -151,112 -137,522 13,610 50,29 132,20 194,20 0,-109 -11,-218 52,-284 138,-146 455,-12 580,-99 84,-59 74,-137 74,-264 0,-225 38,-361 -296,-372 -88,-3 -227,5 -297,41 -92,48 -72,153 -72,267z"/>
  <path class="fil2" d="M1316 781c-4,80 -70,143 -128,169 -129,56 -421,-40 -527,69 -59,59 -46,151 -46,251 0,187 -39,310 236,359 153,27 415,-20 423,-161l2 -145 -317 0c-11,-1 -9,-3 -13,-5l2 -40c125,1 250,1 374,1 159,0 212,16 269,-114 45,-104 54,-200 34,-320 -17,-101 -54,-221 -151,-230l-152 -3c0,46 10,133 -6,169z"/>
  <path class="fil3" d="M1112 1409c-78,31 -35,143 43,116 70,-24 36,-147 -43,-116z"/>
  <path class="fil3" d="M734 366c-68,28 -32,141 45,116 75,-24 39,-150 -45,-116z"/>
 </g>
</svg>
