<?xml version="1.0" encoding="utf-8"?>
<!-- Generator: Adobe Illustrator 17.0.0, SVG Export Plug-In . SVG Version: 6.00 Build 0)  -->
<!DOCTYPE svg PUBLIC "-//W3C//DTD SVG 1.1//EN" "http://www.w3.org/Graphics/SVG/1.1/DTD/svg11.dtd">
<svg version="1.1" xmlns="http://www.w3.org/2000/svg" xmlns:xlink="http://www.w3.org/1999/xlink" x="0px" y="0px"
	 width="637.468px" height="419.979px" viewBox="0 0 637.468 419.979" enable-background="new 0 0 637.468 419.979"
	 xml:space="preserve">
<g id="Background">
	<circle fill="#477C48" cx="456.466" cy="308.433" r="100.148"/>
	<circle fill="#639E63" cx="456.466" cy="308.433" r="86.174"/>
	<rect x="398.443" y="252.88" fill="none" width="115.764" height="115.764"/>
	<circle fill="none" stroke="#639E63" stroke-width="2" stroke-miterlimit="10" cx="456.466" cy="308.821" r="94.325"/>
	<path fill="#477C48" d="M494.421,338.806l-11.481-11.457c-0.056-0.056-0.125-0.1-0.183-0.138c-1.036,1.584-2.267,3.097-3.661,4.485
		c-1.388,1.396-2.902,2.626-4.504,3.663c0.056,0.056,0.101,0.125,0.158,0.182l11.457,11.483c2.267,2.261,5.954,2.261,8.215,0
		C496.683,344.756,496.683,341.073,494.421,338.806L494.421,338.806z M494.421,338.806"/>
	<path fill="#477C48" d="M477.461,292.219c-10.433-10.428-27.399-10.428-37.832,0c-10.439,10.433-10.446,27.412-0.006,37.845
		c10.433,10.426,27.405,10.426,37.838-0.006C487.889,319.631,487.889,302.645,477.461,292.219L477.461,292.219z M444.542,325.151
		c-7.727-7.727-7.72-20.295,0-28.008c7.72-7.727,20.288-7.727,28.008-0.006c7.714,7.72,7.714,20.277,0,28.008
		C464.824,332.845,452.262,332.871,444.542,325.151L444.542,325.151z M444.542,325.151"/>
	<path fill="#477C48" d="M447.251,313.761c-0.566-2.33-2.902-5.565-4.869-4.535c-1.557,0.791-1.118,4.44-0.383,6.594
		c3.279,9.806,15.22,11.878,16.463,10.635C459.681,325.238,449.499,322.982,447.251,313.761L447.251,313.761z M447.251,313.761"/>
	<path fill="#477C48" d="M515.629,265.454h-119.93h-4.157v4.157v7.16v75.142c0,2.296,1.861,4.157,4.157,4.157h119.93
		c2.296,0,4.157-1.861,4.157-4.157v-75.142v-7.16v-4.157H515.629z M516.607,348.295c0,2.327-1.905,4.213-4.254,4.213H398.914
		c-2.349,0-4.254-1.886-4.254-4.213v-72.004l121.947,0.173V348.295z"/>
	<circle fill="#639E63" cx="503.047" cy="271.008" r="1.819"/>
	<circle fill="#639E63" cx="495.771" cy="271.008" r="1.819"/>
	<path opacity="0.35" fill="#1D1D1B" d="M492.327,347.878c0,17.613,6.36,33.67,16.803,45.816
		c28.045-17.748,46.681-49.02,46.681-84.664c0-10.232-1.543-20.102-4.394-29.399C518.241,283.068,492.327,312.309,492.327,347.878z"
		/>
	<circle fill="#639E63" cx="510.582" cy="271.008" r="1.819"/>
	<circle fill="#18474E" cx="564.114" cy="347.243" r="65.647"/>
	<circle fill="none" stroke="#215E63" stroke-miterlimit="10" cx="564.305" cy="347.539" r="61.639"/>
	<circle fill="#215E63" cx="564.114" cy="347.243" r="56.487"/>
	<path fill="#18474E" d="M603.79,339.283c0,0.665-0.743,1.204-1.661,1.204h-77.427c-0.917,0-1.661-0.539-1.661-1.204v-20.011
		c0-0.665,0.743-1.204,1.661-1.204h77.427c0.917,0,1.661,0.539,1.661,1.204V339.283z"/>
	<path fill="#215E63" d="M548.989,325.022c0,0.745-0.604,1.349-1.349,1.349h-18.059c-0.745,0-1.349-0.604-1.349-1.349l0,0
		c0-0.745,0.604-1.349,1.349-1.349h18.059C548.385,323.673,548.989,324.277,548.989,325.022L548.989,325.022z"/>
	<path fill="#215E63" d="M548.989,330.315c0,0.745-0.604,1.349-1.349,1.349h-18.059c-0.745,0-1.349-0.604-1.349-1.349l0,0
		c0-0.745,0.604-1.349,1.349-1.349h18.059C548.385,328.966,548.989,329.57,548.989,330.315L548.989,330.315z"/>
	<path fill="#215E63" d="M548.989,335.286c0,0.745-0.604,1.349-1.349,1.349h-18.059c-0.745,0-1.349-0.604-1.349-1.349l0,0
		c0-0.745,0.604-1.349,1.349-1.349h18.059C548.385,333.937,548.989,334.541,548.989,335.286L548.989,335.286z"/>
	<circle fill="#215E63" cx="588.049" cy="336.117" r="1.59"/>
	<circle fill="#215E63" cx="606.192" cy="361.977" r="1.59"/>
	<path fill="#18474E" d="M603.79,365.23c0,0.665-0.743,1.204-1.661,1.204h-77.427c-0.917,0-1.661-0.539-1.661-1.204v-20.011
		c0-0.665,0.743-1.204,1.661-1.204h77.427c0.917,0,1.661,0.539,1.661,1.204V365.23z"/>
	<path fill="#215E63" d="M548.989,350.97c0,0.745-0.604,1.349-1.349,1.349h-18.059c-0.745,0-1.349-0.604-1.349-1.349l0,0
		c0-0.745,0.604-1.349,1.349-1.349h18.059C548.385,349.62,548.989,350.224,548.989,350.97L548.989,350.97z"/>
	<path fill="#215E63" d="M548.989,356.263c0,0.745-0.604,1.349-1.349,1.349h-18.059c-0.745,0-1.349-0.604-1.349-1.349l0,0
		c0-0.745,0.604-1.349,1.349-1.349h18.059C548.385,354.914,548.989,355.518,548.989,356.263L548.989,356.263z"/>
	<path fill="#215E63" d="M548.989,361.234c0,0.745-0.604,1.349-1.349,1.349h-18.059c-0.745,0-1.349-0.604-1.349-1.349l0,0
		c0-0.745,0.604-1.349,1.349-1.349h18.059C548.385,359.885,548.989,360.489,548.989,361.234L548.989,361.234z"/>
	<circle fill="#215E63" cx="588.049" cy="362.064" r="1.59"/>
	<circle fill="#215E63" cx="606.192" cy="387.925" r="1.59"/>
	<path fill="#18474E" d="M564.347,379.042c0,0.413-0.372,0.747-0.83,0.747h-0.619c-0.459,0-0.83-0.334-0.83-0.747v-44.358
		c0-0.413,0.372-0.747,0.83-0.747h0.619c0.459,0,0.83,0.334,0.83,0.747V379.042z"/>
	<circle fill="#18474E" cx="562.897" cy="379.927" r="4.359"/>
	<path fill="#18474E" d="M591.299,380.757c0,0.459-0.372,0.83-0.83,0.83h-55.387c-0.459,0-0.83-0.372-0.83-0.83v-0.499
		c0-0.459,0.372-0.83,0.83-0.83h55.387c0.459,0,0.83,0.372,0.83,0.83V380.757z"/>
	<circle fill="#9B3737" cx="183.399" cy="311.14" r="100.148"/>
	<circle fill="#C66363" cx="183.399" cy="311.14" r="86.174"/>
	<circle fill="none" stroke="#C66363" stroke-width="2" stroke-miterlimit="10" cx="183.399" cy="311.528" r="94.325"/>
	<path fill-rule="evenodd" clip-rule="evenodd" fill="#9B3737" d="M183.93,387.111c13.091-11.571,42.138-29.079,51.612-50.076
		c0.08-25.558,0.16-51.116,0.24-76.674c-57.438-20.405-93.862-2.161-103.529,0c0,25.238,0,50.476,0,75.714
		C144.833,362.257,165.542,371.123,183.93,387.111L183.93,387.111z"/>
	<path fill-rule="evenodd" clip-rule="evenodd" fill="#C66363" d="M204.431,277.997l-0.288,0.288l-0.352,0.336l-0.384,0.32
		c-0.064,0.128-0.08,0.128-0.176,0.24c-0.048,0.032-0.08,0.064-0.112,0.096c-0.096,0.064-0.032,0.032-0.112,0.048
		c-0.064,0.144-0.112,0.24-0.288,0.272c-0.096,0.16-0.368,0.448-0.528,0.528l-0.352,0.352c-0.224,0.192-0.4,0.4-0.608,0.592
		l-0.352,0.336l-0.352,0.288l-0.592,0.576c0,0.016-0.016,0.032-0.016,0.032l-0.272,0.224l-0.384,0.4l-0.288,0.288l-0.4,0.352
		c-0.192,0.256-0.464,0.496-0.736,0.672l-0.384,0.384c-0.16,0.224-0.32,0.352-0.544,0.496l-0.384,0.384l-0.288,0.304
		c-0.112,0.128-0.16,0.16-0.304,0.224l-0.384,0.4c-0.16,0.24-0.368,0.368-0.576,0.544l-0.4,0.384
		c-0.096,0.144-0.272,0.336-0.432,0.4l-0.4,0.384c-0.096,0.16-0.288,0.352-0.448,0.432c-0.08,0.128-0.208,0.208-0.32,0.304
		l-0.528,0.528c-0.128,0.144-0.192,0.144-0.288,0.256l-0.272,0.224c-0.08,0.144-0.16,0.208-0.288,0.304
		c-0.096,0.144-0.176,0.208-0.304,0.304c-0.112,0.08-0.176,0.16-0.288,0.24c-0.112,0.16-0.288,0.352-0.448,0.416
		c-0.112,0.208-0.176,0.192-0.352,0.352c-0.112,0.112-0.192,0.208-0.304,0.304l-0.464,0.432c0,0.016-0.016,0.032-0.016,0.032
		l-0.256,0.24c-0.208,0.192-0.608,0.656-0.784,0.704l-0.64,0.656c-0.032,0.032-0.064,0.064-0.096,0.096
		c-0.096,0.08-0.032,0.032-0.112,0.064l-0.528,0.528c-0.096,0.096-0.032,0.064-0.16,0.112c-0.096,0.208-0.224,0.272-0.416,0.416
		c-0.16,0.128-0.256,0.288-0.4,0.368c-0.096,0.176-0.24,0.288-0.416,0.432c-0.176,0.128-0.288,0.272-0.416,0.352
		c-0.096,0.16-0.384,0.448-0.56,0.576c-0.16,0.112-0.192,0.144-0.32,0.272c-0.112,0.128-0.144,0.192-0.304,0.24l0.016-0.048
		c-0.288-0.192-0.48-0.48-0.736-0.688c-0.192-0.128-0.576-0.512-0.688-0.688l-1.664-1.552c-0.16-0.112-0.256-0.256-0.4-0.384
		c-0.176-0.16-0.256-0.144-0.384-0.384l-0.48-0.48c-0.176-0.064-0.368-0.24-0.448-0.4c-0.144-0.048-0.464-0.416-0.528-0.528
		c-0.16-0.064-0.352-0.24-0.448-0.384l-0.288-0.288c-0.128-0.064-0.256-0.208-0.336-0.352c-0.208-0.064-0.224-0.128-0.384-0.288
		c-0.096-0.096-0.224-0.192-0.304-0.32c-0.064-0.048-0.4-0.336-0.432-0.4l-0.256-0.24l-0.432-0.448
		c-0.064-0.032-0.096-0.048-0.176-0.112c-0.096-0.096-0.048-0.016-0.112-0.144c-0.08-0.032-0.016,0.016-0.112-0.064
		c-0.032-0.032-0.064-0.064-0.112-0.096c-0.096-0.096-0.112-0.112-0.176-0.224c-0.128-0.064-0.256-0.208-0.336-0.352
		c-0.176-0.048-0.208-0.064-0.304-0.24c-0.064-0.032,0,0-0.096-0.064c-0.032-0.032-0.08-0.064-0.112-0.096
		c-0.112-0.112-0.112-0.096-0.176-0.24l-0.432-0.368c-0.144-0.08-0.304-0.24-0.4-0.4l-0.4-0.368c-0.176-0.144-0.288-0.192-0.432-0.4
		l-0.256-0.24c-0.096-0.096-0.176-0.192-0.288-0.272c-0.16-0.144-0.176-0.08-0.288-0.288c-0.112-0.048-0.128-0.08-0.224-0.192
		c-0.08-0.064-0.112-0.096-0.192-0.192c-0.144-0.128-0.272-0.256-0.4-0.368l-0.256-0.256l-0.384-0.384
		c-0.128-0.08-0.368-0.272-0.448-0.384l-0.384-0.4c-0.128-0.08-0.224-0.176-0.288-0.304c-0.192-0.064-0.336-0.224-0.448-0.384
		l-0.24-0.24c-0.064-0.048-0.448-0.368-0.496-0.432l-0.48-0.496c-0.128-0.08-0.176-0.16-0.32-0.272s-0.176-0.112-0.272-0.256
		c-0.16-0.112-0.336-0.32-0.464-0.464c-0.096-0.08-0.128-0.128-0.24-0.208c-0.128-0.096-0.128-0.08-0.224-0.208l-0.288-0.304
		l-0.288-0.304c-0.24-0.112-0.512-0.352-0.64-0.592c-0.144-0.064-0.304-0.224-0.384-0.384c-0.208-0.064-0.416-0.288-0.544-0.48
		c-0.192-0.08-0.576-0.048-0.848-0.048h-1.072h-1.152h-0.768h-1.264h-0.608h-0.912h-1.2h-0.704h-0.544h-1.152h-0.64h-1.024h-1.392
		h-0.192v0.24v1.584v1.232v0.784v1.504v0.64c0,0.176-0.016,0.4,0,0.56c0.016,0.192,0.048,0.176,0.048,0.416v1.472v1.296v0.848v1.92
		v1.68v1.584v2.145v3.649v13.651v3.873v2.305v1.776v1.84c0,0.384-0.048,0.592-0.048,1.008c0,0.368,0,0.736,0,1.104v0.944
		c0.032,0.256,0.032,0.576,0.08,0.848c0.032,0.256,0.064,0.64,0.064,0.896l0.448,2.273c0.096,0.128,0.672,2.096,0.672,2.096
		l0.08,0.16c0.032,0.064,0.048,0.112,0.064,0.176l0.448,1.136c0,0.016,0.016,0.016,0.016,0.032l0.512,1.152l0.88,1.632
		c0.112,0.208,0.24,0.352,0.304,0.592c0.16,0.096,0.528,0.832,0.64,1.008c0.128,0.208,0.576,0.864,0.624,1.056
		c0.176,0.096,0.016-0.032,0.144,0.128l1.808,2.545c0.096,0.128,0.224,0.272,0.288,0.416c0.128,0.128,0.24,0.272,0.368,0.432
		c0.08,0.112,0.112,0.144,0.192,0.24c0.128,0.16,0.128,0.096,0.176,0.288c0.16,0.08,0.992,1.104,1.2,1.36l1.248,1.408l1.008,1.04
		c0.144,0.128,0.08,0.048,0.16,0.224c0.064,0.048,1.392,1.328,1.456,1.424c0.144,0.096,0.192,0.176,0.32,0.272
		c0.144,0.112,0.208,0.112,0.464,0.112h0.448v-0.224v-0.768v-1.264v-1.04v-0.672v-0.768v-0.384v-0.544v-0.64v-0.848v-0.336v-0.912
		v-0.56v-1.216v-0.688v-0.368v-0.72v-0.976v-0.832v-0.4v-0.704v-0.704v-0.576v-0.832v-0.72v-1.312v-1.2v-1.36v-0.512v-1.024v-0.656
		v-0.688v-0.624v-0.352v-0.656v-0.384v-0.672v-0.704v-0.72v-0.72v-0.784v-1.6v-0.848v-0.896v-0.992v-1.04v-2.353v-1.536v-4.385
		v-5.889l0.544,0.48c0.192,0.192,0.368,0.288,0.528,0.48c0.112,0.096,0.144,0.128,0.272,0.224c0.064,0.048,0.08,0.064,0.128,0.128
		c0.08,0.096,0.032,0.032,0.064,0.096c0.112,0.064,0.32,0.24,0.416,0.32c0.096,0.096,0.144,0.16,0.224,0.24
		c0.144,0.112,0.128,0.048,0.192,0.176c0.16,0.096,0.176,0.144,0.304,0.256c0.144,0.128,0.16,0.064,0.24,0.24l0.4,0.336
		c0.08,0.064,0.496,0.416,0.528,0.496l0.4,0.336c0.064,0.032,0.608,0.544,0.64,0.592c0.112,0.064,0.128,0.096,0.224,0.208
		c0.112,0.096,0.128,0.08,0.224,0.176c0.144,0.112,0.288,0.24,0.368,0.384c0.208,0.064,0.272,0.208,0.416,0.336
		c0.16,0.144,0.272,0.16,0.368,0.352c0.112,0.064,0.16,0.128,0.288,0.224c0.112,0.08,0.144,0.112,0.192,0.224
		c0.272,0.144,0.464,0.384,0.64,0.544c0.016,0.016,0.112,0.08,0.112,0.08l0.064,0.096l1.232,1.136
		c0.192,0.096,0.864,0.72,1.104,0.96c0.032,0.016,0.048,0.048,0.08,0.064l0.032,0.048c0.192,0.096,0.256,0.224,0.432,0.368
		l1.216,1.072c1.184,1.2,1.168,0.544,1.152,1.968v0.88v1.12v0.816v0.528v0.928v1.008l-0.048,0.736v0.544v0.768v0.528v0.72v0.656
		v0.496v0.752v0.736v0.72v0.512v0.928v0.512v0.496v0.464c0,0.208-0.048,0.24-0.048,0.512v0.944v0.496v0.432v0.48v0.496v0.496v0.288
		v0.448v0.256v0.48v0.384h1.84h4.913h6.706l0.128,0.016v-0.48v-0.752v-0.48v-0.928v-0.992v-0.704v-0.464v-0.48v-0.976v-0.72v-0.752
		c-0.016-0.224-0.048-0.192-0.048-0.416v-0.512v-0.72v-0.704v-0.752v-0.432v-0.912v-1.024v-0.512v-1.008v-0.976v-0.928l-0.048-1.136
		v-0.96v-1.92c0-0.256-0.064-0.672,0.032-0.864l3.105-2.785c0.08-0.16,1.024-0.912,1.216-1.104l1.216-1.088
		c0.064-0.112,0.112-0.112,0.224-0.208c0.08-0.064,0.128-0.112,0.192-0.192c0.112-0.112,0.352-0.304,0.48-0.384
		c0.048-0.128,0.096-0.144,0.224-0.24c0.112-0.08,0.144-0.128,0.256-0.224c0.096-0.112,0.4-0.384,0.544-0.464
		c0.064-0.176,0.176-0.176,0.336-0.32c0.064-0.064,0.096-0.112,0.16-0.176c0.128-0.128,0.048-0.096,0.224-0.128
		c0.08-0.16,0.24-0.304,0.4-0.432c0.176-0.128,0.256-0.256,0.448-0.352c0-0.016,0-0.032,0.016-0.032l0.688-0.624
		c0.064-0.064,0.112-0.112,0.176-0.192c0.128-0.128,0.096-0.112,0.256-0.176c0.096-0.176,0.544-0.544,0.72-0.64
		c0.032-0.112,0.624-0.624,0.64-0.64c0.112-0.08,0.192-0.16,0.32-0.24c0.064-0.128,0.352-0.352,0.496-0.432
		c0.048-0.128,0.64-0.624,0.656-0.64v9.298v2.369v1.248v1.104v1.472v1.36v1.664v0.768v0.752v1.104v1.392v1.36v0.624v0.992v0.64v1.36
		v0.784v0.768v0.832v0.432v0.752v0.432v1.12v1.408v1.104v0.576v0.848v0.544v0.688v0.896v0.688v1.6v0.528v0.8v1.152v0.624v0.672
		v0.656v0.752v0.96v0.624v1.248v0.608h0.224c0.528,0,0.512,0.096,0.8-0.208c0.16-0.176,0.32-0.384,0.544-0.464
		c0.128-0.224,1.104-1.12,1.424-1.456l0.192-0.192c0.096-0.176,0.928-1.008,1.136-1.232l1.744-2
		c0.096-0.176,0.208-0.304,0.336-0.464c0.112-0.144,0.224-0.272,0.336-0.432c0.128-0.16,0.56-0.736,0.688-0.816
		c0.032-0.16,0.144-0.24,0.224-0.368l1.344-1.872c0.096-0.128,0.128-0.224,0.24-0.304l1.408-2.305
		c0.064-0.208,0.16-0.336,0.272-0.512l0.768-1.424c0.032-0.208,0.544-1.2,0.672-1.568l0.64-1.584
		c0.048-0.288,0.208-0.704,0.304-1.008s0.192-0.624,0.288-0.96c0.032-0.224,0.096-0.416,0.144-0.64l0.144-0.608
		c0-0.288,0.064-0.528,0.08-0.784c0.016-0.128,0.064-0.688,0.112-0.736c0-0.16-0.016-0.368,0-0.512
		c0.016-0.192,0.048-0.192,0.048-0.432v-2.753v-1.28c0-0.32-0.048-0.544-0.048-0.912c0-0.288,0-0.592,0-0.88v-1.472v-1.328v-2.273
		v-1.824v-14.179v-1.728v-2.129v-1.2v-1.36c0-0.256,0-0.528,0-0.784c0-0.352,0.048-0.496,0.048-0.816V290v-2.417v-0.8v-1.008v-0.768
		v-1.04v-1.456v-0.816v-0.944v-1.024v-0.736v-0.704v-0.352h-0.288h-0.608h-0.64h-0.928h-0.752h-0.656h-0.672h-0.672h-1.2h-0.8
		h-0.576h-1.696h-0.736h-1.04h-1.408C204.975,277.933,204.607,277.901,204.431,277.997L204.431,277.997z"/>
	<path opacity="0.35" fill="#1D1D1B" d="M89.031,277.467c-3.853,10.642-5.957,22.122-5.957,34.094
		c0,35.184,18.147,66.125,45.588,83.988c11.324-12.591,18.297-29.675,18.297-48.507C146.959,311.131,121.647,281.547,89.031,277.467
		z"/>
	<circle fill="#5F4960" cx="75.312" cy="347.539" r="65.647"/>
	<circle fill="none" stroke="#7B5C7C" stroke-miterlimit="10" cx="75.503" cy="347.835" r="61.639"/>
	<circle fill="#7B5C7C" cx="75.312" cy="347.539" r="56.487"/>
	<path fill="#5F4960" d="M100.722,378.898c-0.16,1.602-1.502,3.015-3.163,3.341c-0.422,0.083-0.861,0.115-1.292,0.115
		c-14.575,0.006-29.151,0.01-43.726,0.002c-2.475-0.001-4.032-1.183-4.559-3.458C65.574,378.898,83.145,378.898,100.722,378.898z"/>
	<path fill="#5F4960" d="M100.935,349.32c-0.007-2.481-1.576-4.244-4.082-4.333c-0.857-0.031-1.459-0.005-2.459-0.005
		c0-0.004,0-0.007,0-0.011l-13.648,0.427c-4.78,0-9.373,0-14.066,0c-0.039-2-0.103-1.574-0.109-2.228
		c-0.029-3.202-0.059-6.522-0.058-9.724c0.001-4.468,3.33-7.991,7.721-8.121c4.19-0.124,7.805,3.279,7.98,7.614
		c0.084,2.094,0.09,3.459,0.076,6.459h0.104v0.708c0,0.51,0.106,1.292,0.683,1.292h9.753c0.577,0,1.564-0.811,1.564-1.321v-1.538
		c0-0.067-0.207-0.132-0.226-0.195c0.006-1.46-0.091-3.242-0.109-4.873c-0.015-1.361-0.127-2.7-0.388-4.031
		c-2.091-10.651-12.027-17.423-22.751-15.61c-8.426,1.425-15.353,8.761-15.952,17.238c-0.298,4.216-0.119,8.471-0.152,12.706
		c-0.003,0.357-0.003,0.716-0.003,1.195c-0.73,0-1.357,0-1.983,0.002c-3.345,0.011-4.992,1.642-4.993,4.966
		c-0.004,8.173-0.002,16.239,0.002,24.412c0,0.385,0.039,1.048,0.061,1.048c17.735,0,35.357,0,52.995,0
		c0.023,0,0.049-0.236,0.049-0.366C100.944,366.426,100.958,357.926,100.935,349.32z"/>
</g>
<g id="Objects">
	<path fill="#FFC400" d="M430.128,25.764c0.115-2.087,0.258-4.193,0.258-6.146H215.464c0,1.953,0.134,4.059,0.249,6.146h-71.516
		c0,0,27.017,132.597,125.589,132.597c0.498,0,1.034-0.048,1.561-0.057c5.629,6.233,11.546,11.766,17.75,16.161
		c-4.366,0.086-7.879,3.581-7.879,7.937c0,4.413,3.59,7.994,7.985,7.994h10.541l-24.097,101.396h-17.903v96.006h135.987v-96.006
		h-17.941l-24.107-101.396h10.57c4.385,0,7.975-3.581,7.975-7.994c0-4.394-3.581-7.985-7.975-7.985h-5.448
		c6.175-4.385,12.063-9.899,17.692-16.113c0.507,0.01,1.044,0.057,1.541,0.057c98.582,0,125.628-132.597,125.628-132.597H430.128z
		 M162.894,40.009h54.36c4.998,32.005,20.392,72.828,42.02,103.282C200.826,136.198,173.014,71.565,162.894,40.009z
		 M374.505,304.955v66.777h-99.07v-66.777H374.505z M386.577,143.292c21.618-30.445,37.003-71.268,42-103.282h54.389
		C472.818,71.584,444.987,136.207,386.577,143.292z"/>
	<path fill="#FFE400" d="M257.742,291.791v96.006h64.367v-16.065h-46.675v-66.777c0,0,23.415,0,46.675,0V19.617H215.464
		c0,1.953,0.134,4.059,0.249,6.146h-71.516c0,0,27.017,132.597,125.589,132.597c0.498,0,1.034-0.048,1.561-0.057
		c5.629,6.233,11.546,11.766,17.75,16.161c-4.366,0.086-7.879,3.581-7.879,7.937c0,4.413,3.59,7.994,7.984,7.994h10.541
		l-24.097,101.396H257.742z M162.894,40.009h54.36c4.998,32.005,20.392,72.828,42.02,103.282
		C200.826,136.198,173.014,71.565,162.894,40.009z"/>
	<path fill="#FFCF00" d="M275.435,371.733v-66.777c0,0,1.345,0,3.691,0c-0.13-0.605-0.196-1.269-0.034-1.97
		c6.313-27.36,11.042-48.642,16.92-75.092c3.818-17.183,5.94-29.063,8.698-40.519c-6.152,0.636-17.052,2.952-17.608-4.455
		c-0.637-8.486,8.488-7.171,8.91-7.213c-7.213-6.576-24.608-26.093-44.411-65.978c-8.334-16.786-20.775-61.065-22.995-90.113
		h-13.141c0,1.953,0.134,4.059,0.249,6.146h-71.516c0,0,27.017,132.597,125.589,132.597c0.498,0,1.034-0.048,1.561-0.057
		c5.629,6.233,11.546,11.766,17.75,16.161c-4.366,0.086-7.879,3.581-7.879,7.937c0,4.413,3.59,7.994,7.984,7.994h10.541
		l-24.097,101.396h-17.903v96.006h64.367v-16.065H275.435z M162.894,40.009h54.36c4.998,32.005,20.392,72.828,42.02,103.282
		C200.826,136.198,173.014,71.565,162.894,40.009z"/>
	<path fill="#FFE400" d="M288.43,304.955h4.866c1.537-9.166,1.621-18.476,2.578-27.734c0.441-4.264,1.192-8.465,2.034-12.65
		C294.254,277.903,290.848,291.297,288.43,304.955z"/>
	<path fill="none" d="M267.084,19.617c-1.004,28.418,1.457,51.355,12.846,83.188c17.354,48.506,35.174,66.326,35.174,77.994
		c0,29.591-9.992,106.462-12.137,124.157h19.142V19.617H267.084z"/>
	<rect x="233.233" y="386.789" fill="#001A36" width="179.404" height="23.494"/>
	<rect x="233.233" y="386.789" fill="#324B60" width="88.723" height="23.494"/>
	<path fill="#FFE400" d="M215.713,25.764h-71.516c0,0,8.049,40.779,33.483,78.596c25.434,37.817,55.173,47.679,60.072,49.028
		c23.091,6.359,33.595,4.916,33.595,4.916s-30.081-0.733-59.699-22.988c-22.325-16.775-39.155-44.51-49.53-70.279
		c-8.893-22.089-11.88-35.307-11.88-35.307l65.761,0.167L215.713,25.764z"/>
	<path fill="#FFE400" d="M430.128,25.764h71.536c0,0-9.905,48.811-40.025,87.297c-26.447,33.794-51.203,40.494-66.932,43.84
		c-15.729,3.347-20.212,1.402-20.212,1.402s12.349-0.393,24.395-3.912c14.892-4.351,40.159-16.733,62.916-49.195
		c26.001-37.09,30.789-73.625,30.789-73.625l-63.418-0.167L430.128,25.764z"/>
	<polygon fill="#FFE400" points="374.174,305.141 270.116,302.828 275.617,370.753 275.756,371.448 	"/>
	<rect x="275.435" y="304.955" fill="#F19000" width="99.07" height="66.777"/>
	<rect x="279.547" y="309.561" fill="#F7B033" width="93.477" height="60.527"/>
	<polygon fill-rule="evenodd" clip-rule="evenodd" fill="#5A99B2" points="390.515,112.214 403.78,60.993 429.041,67.535 
		415.775,118.756 405.636,105.865 	"/>
	<path fill="#FFE400" stroke="#FFE400" stroke-width="10" stroke-miterlimit="10" d="M437.295,15.412
		c-2.338-1.251-5.548-0.181-8.072-0.766c-2.559-0.593-4.974-2.957-7.583-2.871c-2.61,0.087-4.863,2.606-7.377,3.367
		c-2.479,0.751-5.753-0.103-8.004,1.299c-2.174,1.357-2.862,4.654-4.696,6.613c-1.834,1.959-5.078,2.865-6.288,5.124
		c-1.249,2.339-0.18,5.549-0.765,8.073c-0.593,2.561-2.957,4.975-2.87,7.585c0.087,2.608,2.606,4.861,3.367,7.376
		c0.751,2.48-0.103,5.754,1.299,8.003c1.355,2.175,4.653,2.863,6.613,4.697c0.042,0.039,0.077,0.088,0.118,0.128l1.849-1.976
		c-0.042-0.039-0.087-0.075-0.129-0.114c-10.556-9.878-11.108-26.502-1.23-37.057c9.878-10.556,26.502-11.106,37.058-1.228
		c0.042,0.039,0.081,0.081,0.123,0.121l1.848-1.975c-0.042-0.039-0.093-0.07-0.135-0.109
		C440.46,19.865,439.555,16.619,437.295,15.412z"/>
	<path fill="#FFFFFF" d="M402.991,25.48c-9.707,10.636-8.922,28.128,3.945,38.395l0.736-0.727
		c-10.119-9.363-12.459-26.616-3.15-36.815c9.308-10.199,24.631-4.077,35.396-1.737l0.721-0.79
		C428.48,13.452,412.698,14.845,402.991,25.48z"/>
	<polygon fill-rule="evenodd" clip-rule="evenodd" fill="#82C4D8" points="454.577,112.214 441.312,60.993 416.051,67.535 
		429.317,118.756 439.456,105.865 	"/>
	<circle fill="#FFC400" cx="423.467" cy="43.204" r="25.337"/>
	<path fill="#FFC400" stroke="#FFC400" stroke-width="7" stroke-miterlimit="10" d="M443.717,61.169
		c-9.839,10.514-23.77,14.637-34.331,4.883l-1.649,1.609c1.875,1.852,0,1.805,2.211,2.987c2.337,1.251,5.548,0.181,8.073,0.766
		c2.56,0.593,4.974,2.957,7.584,2.87c2.609-0.087,4.861-2.606,7.377-3.366c2.479-0.751,5.753,0.103,8.003-1.3
		c2.175-1.355,2.863-4.653,4.697-6.612c1.834-1.959,5.078-2.865,6.287-5.124c1.25-2.338,0.181-5.549,0.765-8.073
		c0.594-2.56,2.957-4.974,2.871-7.584c-0.086-2.608-2.605-4.861-3.366-7.376c-0.751-2.479,0.102-5.754-1.299-8.002
		c-1.326-2.128-4.076-2.26-6.021-3.965l-1.595,1.72C453.727,34.451,453.555,50.655,443.717,61.169z"/>
	<path fill="#FFE400" d="M407.26,62.917l32.658-38.321c-4.545-4.459-9.888-6.773-16.183-7.064
		c-13.979-0.646-26.403,11.28-26.403,25.273C397.332,50.129,400.773,58.366,407.26,62.917z"/>
	<path fill="#C6C6C6" d="M440.057,24.699c10.242,9.347,10.971,25.285,1.624,35.527c-9.347,10.242-22.894,10.625-34.421,2.691
		c-0.048-0.033-0.066-0.038,0.107,0.107l-0.663,0.67c-0.173-0.145,0.975,0.784,1.024,0.815c12.253,7.761,24.999,7.118,34.744-3.561
		c9.745-10.678,8.986-27.294-1.693-37.039c-0.043-0.039-0.088-0.074-0.13-0.113l-0.721,0.79
		C439.97,24.624,440.015,24.66,440.057,24.699z"/>
	<g>
		<path fill="#EA781B" d="M334.059,118.457h14.982v19.618h-48.858v-19.618h15.681V76.576c-5.956,3.657-10.609,5.808-13.959,6.453
			V63.217c9.027-2.71,15.153-7.571,18.38-14.584h13.774V118.457z"/>
	</g>
	<path fill="#F98B38" d="M322.109,48.618h-1.842c-3.227,7.013-9.353,11.874-18.38,14.584v19.812
		c3.351-0.646,8.003-2.796,13.959-6.453v41.881h-15.681v19.618h21.943V48.618z"/>
</g>
</svg>
